{
    "openapi": "3.0.0",
    "info": {
        "title": "Aliya Online Service",
        "description": "Aliya Online Service API for Apps",
        "version": "1.0.0"
    },
    "servers": [
        {
            "url": "http://localhost:8000/"
        }
    ],
    "paths": {
        "/api/cat": {
            "get": {
                "tags": [
                    "Category"
                ],
                "summary": "View all Category",
                "operationId": "category",
                "responses": {
                    "200": {
                        "description": "successful operation"
                    },
                    "400": {
                        "description": "Bad request"
                    },
                    "404": {
                        "description": "Resource Not Found"
                    }
                }
            }
        },
        "/api/sub_cat?cat_id={cat_id}": {
            "get": {
                "tags": [
                    "Category"
                ],
                "summary": "View all Sub Category",
                "operationId": "subCategory",
                "parameters": [
                    {
                        "name": "cat_id",
                        "in": "path",
                        "required": true,
                        "schema": {
                            "type": "string"
                        }
                    }
                ],
                "responses": {
                    "200": {
                        "description": "successful operation"
                    },
                    "400": {
                        "description": "Bad request"
                    },
                    "404": {
                        "description": "Resource Not Found"
                    }
                }
            }
        },
        "/api/sub_sub_cat?sub_cat_id={sub_cat_id}": {
            "get": {
                "tags": [
                    "Category"
                ],
                "summary": "View all Sub Sub Category",
                "operationId": "subSubCategory",
                "parameters": [
                    {
                        "name": "sub_cat_id",
                        "in": "path",
                        "required": true,
                        "schema": {
                            "type": "string"
                        }
                    }
                ],
                "responses": {
                    "200": {
                        "description": "successful operation"
                    },
                    "400": {
                        "description": "Bad request"
                    },
                    "404": {
                        "description": "Resource Not Found"
                    }
                }
            }
        },
        "/api/product?sub_sub_id={sub_sub_id}": {
            "get": {
                "tags": [
                    "Product"
                ],
                "summary": "View all Product sub sub Category Wise",
                "operationId": "product",
                "parameters": [
                    {
                        "name": "sub_sub_id",
                        "in": "path",
                        "required": true,
                        "schema": {
                            "type": "string"
                        }
                    }
                ],
                "responses": {
                    "200": {
                        "description": "successful operation"
                    },
                    "400": {
                        "description": "Bad request"
                    },
                    "404": {
                        "description": "Resource Not Found"
                    }
                }
            }
        },
        "/api/product_details?product_id={product_id}&user_id={user_id}": {
            "get": {
                "tags": [
                    "Product"
                ],
                "summary": "View Product Details",
                "operationId": "product_details",
                "parameters": [
                    {
                        "name": "product_id",
                        "in": "path",
                        "required": true,
                        "schema": {
                            "type": "string"
                        }
                    },
                    {
                        "name": "user_id",
                        "in": "path",
                        "required": true,
                        "schema": {
                            "type": "string"
                        }
                    }
                ],
                "responses": {
                    "200": {
                        "description": "successful operation"
                    },
                    "400": {
                        "description": "Bad request"
                    },
                    "404": {
                        "description": "Resource Not Found"
                    }
                }
            }
        },
        "/api/new_arrival": {
            "get": {
                "tags": [
                    "Product"
                ],
                "summary": "View last 10 new arrival Product",
                "operationId": "new_arrival",
                "responses": {
                    "200": {
                        "description": "successful operation"
                    },
                    "400": {
                        "description": "Bad request"
                    },
                    "404": {
                        "description": "Resource Not Found"
                    }
                }
            }
        },
        "/api/best_seller": {
            "get": {
                "tags": [
                    "Product"
                ],
                "summary": "View last 10 best seller Product",
                "operationId": "best_seller",
                "responses": {
                    "200": {
                        "description": "successful operation"
                    },
                    "400": {
                        "description": "Bad request"
                    },
                    "404": {
                        "description": "Resource Not Found"
                    }
                }
            }
        },
        "/api/mostViewedProduct": {
            "get": {
                "tags": [
                    "Product"
                ],
                "summary": "View last 10 most viewed Product",
                "operationId": "mostViewedProduct",
                "responses": {
                    "200": {
                        "description": "successful operation"
                    },
                    "400": {
                        "description": "Bad request"
                    },
                    "404": {
                        "description": "Resource Not Found"
                    }
                }
            }
        },
        "/api/pincheck": {
            "post": {
                "tags": [
                    "Delivery"
                ],
                "summary": "Delivery Pin Check for product details page",
                "operationId": "DeliveryPinCheck",
                "requestBody": {
                    "content": {
                        "application/json": {
                            "schema": {
                                "properties": {
                                    "pin": {
                                        "description": "Document API",
                                        "type": "integer"
                                    }
                                },
                                "type": "object"
                            }
                        }
                    }
                },
                "responses": {
                    "200": {
                        "description": "successful operation"
                    },
                    "400": {
                        "description": "Bad request"
                    },
                    "404": {
                        "description": "Resource Not Found"
                    }
                }
            }
        },
        "/api/find_delivery_charge": {
            "post": {
                "tags": [
                    "Delivery"
                ],
                "summary": "Get Delivery Charge against pincode",
                "operationId": "find_delivery_charge",
                "requestBody": {
                    "content": {
                        "application/json": {
                            "schema": {
                                "properties": {
                                    "pin": {
                                        "description": "Document API",
                                        "type": "integer"
                                    },
                                    "product_total": {
                                        "description": "Document API",
                                        "type": "integer"
                                    }
                                },
                                "type": "object"
                            }
                        }
                    }
                },
                "responses": {
                    "200": {
                        "description": "successful operation"
                    },
                    "400": {
                        "description": "Bad request"
                    },
                    "404": {
                        "description": "Resource Not Found"
                    }
                }
            }
        },
        "/api/coupon_banner": {
            "get": {
                "tags": [
                    "Banner & Offer"
                ],
                "summary": "all coupon banner with discount",
                "operationId": "coupon_banner",
                "responses": {
                    "200": {
                        "description": "successful operation"
                    },
                    "400": {
                        "description": "Bad request"
                    },
                    "404": {
                        "description": "Resource Not Found"
                    }
                }
            }
        },
        "/api/display_banner": {
            "get": {
                "tags": [
                    "Banner & Offer"
                ],
                "summary": "all display banner",
                "operationId": "display_banner",
                "responses": {
                    "200": {
                        "description": "successful operation"
                    },
                    "400": {
                        "description": "Bad request"
                    },
                    "404": {
                        "description": "Resource Not Found"
                    }
                }
            }
        },
        "/api/addtocart": {
            "post": {
                "tags": [
                    "Cart & Wishlist"
                ],
                "summary": "Add product to cart",
                "operationId": "addtocart",
                "requestBody": {
                    "content": {
                        "application/json": {
                            "schema": {
                                "properties": {
                                    "product_id": {
                                        "description": "Document API",
                                        "type": "integer"
                                    },
                                    "qty": {
                                        "description": "Document API",
                                        "type": "integer"
                                    }
                                },
                                "type": "object"
                            }
                        }
                    }
                },
                "responses": {
                    "200": {
                        "description": "successful operation"
                    },
                    "400": {
                        "description": "Bad request"
                    },
                    "404": {
                        "description": "Resource Not Found"
                    }
                },
                "security": [
                    {
                        "bearerAuth": []
                    }
                ]
            }
        },
        "/api/addtowishlist": {
            "post": {
                "tags": [
                    "Cart & Wishlist"
                ],
                "summary": "Add product to wishlist",
                "operationId": "addtowishlist",
                "requestBody": {
                    "content": {
                        "application/json": {
                            "schema": {
                                "properties": {
                                    "product_id": {
                                        "description": "Document API",
                                        "type": "integer"
                                    },
                                    "qty": {
                                        "description": "Document API",
                                        "type": "integer"
                                    }
                                },
                                "type": "object"
                            }
                        }
                    }
                },
                "responses": {
                    "200": {
                        "description": "successful operation"
                    },
                    "400": {
                        "description": "Bad request"
                    },
                    "404": {
                        "description": "Resource Not Found"
                    }
                },
                "security": [
                    {
                        "bearerAuth": []
                    }
                ]
            }
        },
        "/api/removetocart": {
            "post": {
                "tags": [
                    "Cart & Wishlist"
                ],
                "summary": "remove product to cart",
                "operationId": "removetocart",
                "requestBody": {
                    "content": {
                        "application/json": {
                            "schema": {
                                "properties": {
                                    "product_id": {
                                        "description": "Document API",
                                        "type": "integer"
                                    }
                                },
                                "type": "object"
                            }
                        }
                    }
                },
                "responses": {
                    "200": {
                        "description": "successful operation"
                    },
                    "400": {
                        "description": "Bad request"
                    },
                    "404": {
                        "description": "Resource Not Found"
                    }
                },
                "security": [
                    {
                        "bearerAuth": []
                    }
                ]
            }
        },
        "/api/removetowishlist": {
            "post": {
                "tags": [
                    "Cart & Wishlist"
                ],
                "summary": "remove product to wishlist",
                "operationId": "removetowishlist",
                "requestBody": {
                    "content": {
                        "application/json": {
                            "schema": {
                                "properties": {
                                    "product_id": {
                                        "description": "Document API",
                                        "type": "integer"
                                    }
                                },
                                "type": "object"
                            }
                        }
                    }
                },
                "responses": {
                    "200": {
                        "description": "successful operation"
                    },
                    "400": {
                        "description": "Bad request"
                    },
                    "404": {
                        "description": "Resource Not Found"
                    }
                },
                "security": [
                    {
                        "bearerAuth": []
                    }
                ]
            }
        },
        "/api/address": {
            "post": {
                "tags": [
                    "Address"
                ],
                "summary": "Get all shipping address",
                "operationId": "address",
                "responses": {
                    "200": {
                        "description": "successful operation"
                    },
                    "400": {
                        "description": "Bad request"
                    },
                    "404": {
                        "description": "Resource Not Found"
                    }
                },
                "security": [
                    {
                        "bearerAuth": []
                    }
                ]
            }
        },
        "/api/add_update_address": {
            "post": {
                "tags": [
                    "Address"
                ],
                "summary": "Add or update Shipping address",
                "operationId": "add_update_address",
                "requestBody": {
                    "content": {
                        "application/json": {
                            "schema": {
                                "properties": {
                                    "id": {
                                        "description": "Document API",
                                        "type": "integer"
                                    },
                                    "flat": {
                                        "description": "Document API",
                                        "type": "string"
                                    },
                                    "landmark": {
                                        "description": "Document API",
                                        "type": "string"
                                    },
                                    "location": {
                                        "description": "Document API",
                                        "type": "string"
                                    },
                                    "pincode": {
                                        "description": "Document API",
                                        "type": "string"
                                    },
                                    "city": {
                                        "description": "Document API",
                                        "type": "string"
                                    },
                                    "district": {
                                        "description": "Document API",
                                        "type": "string"
                                    },
                                    "state": {
                                        "description": "Document API",
                                        "type": "string"
                                    },
                                    "address": {
                                        "description": "Document API",
                                        "type": "string"
                                    },
                                    "name": {
                                        "description": "Document API",
                                        "type": "string"
                                    },
                                    "phone_no": {
                                        "description": "Document API",
                                        "type": "string"
                                    },
                                    "optional_phone": {
                                        "description": "Document API",
                                        "type": "string"
                                    },
                                    "gst_no": {
                                        "description": "Document API",
                                        "type": "string"
                                    }
                                },
                                "type": "object"
                            }
                        }
                    }
                },
                "responses": {
                    "200": {
                        "description": "successful operation"
                    },
                    "400": {
                        "description": "Bad request"
                    },
                    "404": {
                        "description": "Resource Not Found"
                    }
                },
                "security": [
                    {
                        "bearerAuth": []
                    }
                ]
            }
        },
        "/api/checkout_item": {
            "post": {
                "tags": [
                    "Checkout"
                ],
                "summary": "Product details for checkout Item",
                "operationId": "checkout_item",
                "requestBody": {
                    "content": {
                        "application/json": {
                            "schema": {
                                "properties": {
                                    "product_id": {
                                        "description": "Document API",
                                        "type": "integer"
                                    },
                                    "qty": {
                                        "description": "Document API",
                                        "type": "integer"
                                    },
                                    "type": {
                                        "description": "Document API",
                                        "type": "integer"
                                    }
                                },
                                "type": "object"
                            }
                        }
                    }
                },
                "responses": {
                    "200": {
                        "description": "successful operation"
                    },
                    "400": {
                        "description": "Bad request"
                    },
                    "404": {
                        "description": "Resource Not Found"
                    }
                },
                "security": [
                    {
                        "bearerAuth": []
                    }
                ]
            }
        },
        "/api/pay": {
            "post": {
                "tags": [
                    "Checkout"
                ],
                "summary": "Payment Capture",
                "operationId": "pay",
                "requestBody": {
                    "content": {
                        "application/json": {
                            "schema": {
                                "properties": {
                                    "amt_val": {
                                        "description": "Document API",
                                        "type": "integer"
                                    }
                                },
                                "type": "object"
                            }
                        }
                    }
                },
                "responses": {
                    "200": {
                        "description": "successful operation"
                    },
                    "400": {
                        "description": "Bad request"
                    },
                    "404": {
                        "description": "Resource Not Found"
                    }
                },
                "security": [
                    {
                        "bearerAuth": []
                    }
                ]
            }
        },
        "/api/order_submit": {
            "post": {
                "tags": [
                    "Checkout"
                ],
                "summary": "Order submit api",
                "operationId": "order_submit",
                "requestBody": {
                    "content": {
                        "application/json": {
                            "schema": {
                                "properties": {
                                    "product_id": {
                                        "description": "Document API",
                                        "type": "integer"
                                    },
                                    "total_payble_value": {
                                        "description": "Document API",
                                        "type": "integer"
                                    },
                                    "totalgst": {
                                        "description": "Document API",
                                        "type": "integer"
                                    },
                                    "sub_total": {
                                        "description": "Document API",
                                        "type": "integer"
                                    },
                                    "address_id": {
                                        "description": "Document API",
                                        "type": "integer"
                                    },
                                    "razorpay_payment_id": {
                                        "description": "Document API",
                                        "type": "integer"
                                    },
                                    "payment_type": {
                                        "description": "Document API",
                                        "type": "integer"
                                    },
                                    "wallet_amount": {
                                        "description": "Document API",
                                        "type": "integer"
                                    },
                                    "shipping_charge": {
                                        "description": "Document API",
                                        "type": "integer"
                                    },
                                    "coupon_discount": {
                                        "description": "Document API",
                                        "type": "integer"
                                    },
                                    "coupon_code": {
                                        "description": "Document API",
                                        "type": "integer"
                                    }
                                },
                                "type": "object"
                            }
                        }
                    }
                },
                "responses": {
                    "200": {
                        "description": "successful operation"
                    },
                    "400": {
                        "description": "Bad request"
                    },
                    "404": {
                        "description": "Resource Not Found"
                    }
                },
                "security": [
                    {
                        "bearerAuth": []
                    }
                ]
            }
        },
        "/api/wishlisttocart": {
            "post": {
                "tags": [
                    "Cart & Wishlist"
                ],
                "summary": "add product to cart from wishlist",
                "operationId": "wishlisttocart",
                "requestBody": {
                    "content": {
                        "application/json": {
                            "schema": {
                                "properties": {
                                    "product_id": {
                                        "description": "Document API",
                                        "type": "integer"
                                    }
                                },
                                "type": "object"
                            }
                        }
                    }
                },
                "responses": {
                    "200": {
                        "description": "successful operation"
                    },
                    "400": {
                        "description": "Bad request"
                    },
                    "404": {
                        "description": "Resource Not Found"
                    }
                },
                "security": [
                    {
                        "bearerAuth": []
                    }
                ]
            }
        },
        "/api/booking_history": {
            "get": {
                "tags": [
                    "Order"
                ],
                "summary": "Get all booking",
                "operationId": "booking_history",
                "responses": {
                    "200": {
                        "description": "successful operation"
                    },
                    "400": {
                        "description": "Bad request"
                    },
                    "404": {
                        "description": "Resource Not Found"
                    }
                },
                "security": [
                    {
                        "bearerAuth": []
                    }
                ]
            }
        },
        "/api/cancel_order": {
            "post": {
                "tags": [
                    "Order"
                ],
                "summary": "Cancel a particular order",
                "operationId": "cancel_order",
                "requestBody": {
                    "content": {
                        "application/json": {
                            "schema": {
                                "properties": {
                                    "book_multi_id": {
                                        "description": "Document API",
                                        "type": "integer"
                                    },
                                    "option": {
                                        "description": "Document API",
                                        "type": "string"
                                    },
                                    "message": {
                                        "description": "Document API",
                                        "type": "string"
                                    }
                                },
                                "type": "object"
                            }
                        }
                    }
                },
                "responses": {
                    "200": {
                        "description": "successful operation"
                    },
                    "400": {
                        "description": "Bad request"
                    },
                    "404": {
                        "description": "Resource Not Found"
                    }
                },
                "security": [
                    {
                        "bearerAuth": []
                    }
                ]
            }
        },
        "/api/return_order": {
            "post": {
                "tags": [
                    "Order"
                ],
                "summary": "Return a particular order",
                "operationId": "return_order",
                "requestBody": {
                    "content": {
                        "application/json": {
                            "schema": {
                                "properties": {
                                    "book_multi_id": {
                                        "description": "Document API",
                                        "type": "integer"
                                    },
                                    "option": {
                                        "description": "Document API",
                                        "type": "string"
                                    },
                                    "message": {
                                        "description": "Document API",
                                        "type": "string"
                                    },
                                    "refund_option": {
                                        "description": "Document API",
                                        "type": "string"
                                    },
                                    "account_holder_name": {
                                        "description": "Document API",
                                        "type": "string"
                                    },
                                    "account_number": {
                                        "description": "Document API",
                                        "type": "string"
                                    },
                                    "ifsc_code": {
                                        "description": "Document API",
                                        "type": "string"
                                    }
                                },
                                "type": "object"
                            }
                        }
                    }
                },
                "responses": {
                    "200": {
                        "description": "successful operation"
                    },
                    "400": {
                        "description": "Bad request"
                    },
                    "404": {
                        "description": "Resource Not Found"
                    }
                },
                "security": [
                    {
                        "bearerAuth": []
                    }
                ]
            }
        },
        "/api/option": {
            "get": {
                "tags": [
                    "Order"
                ],
                "summary": "Option for Cancel Order and Return Order",
                "operationId": "option",
                "responses": {
                    "200": {
                        "description": "successful operation"
                    },
                    "400": {
                        "description": "Bad request"
                    },
                    "404": {
                        "description": "Resource Not Found"
                    }
                }
            }
        },
        "/api/phone_no_check": {
            "post": {
                "tags": [
                    "Auth"
                ],
                "summary": " Phone no check",
                "operationId": "phone no check",
                "requestBody": {
                    "content": {
                        "application/json": {
                            "schema": {
                                "properties": {
                                    "mobile": {
                                        "description": "Login API",
                                        "type": "integer"
                                    }
                                },
                                "type": "object"
                            }
                        }
                    }
                },
                "responses": {
                    "200": {
                        "description": "successful operation"
                    },
                    "400": {
                        "description": "Bad request"
                    },
                    "404": {
                        "description": "Resource Not Found"
                    }
                }
            }
        },
        "/api/login": {
            "post": {
                "tags": [
                    "Auth"
                ],
                "summary": " Login",
                "operationId": "authenticate",
                "requestBody": {
                    "content": {
                        "application/json": {
                            "schema": {
                                "properties": {
                                    "mobile": {
                                        "description": "Login API",
                                        "type": "integer"
                                    }
                                },
                                "type": "object"
                            }
                        }
                    }
                },
                "responses": {
                    "200": {
                        "description": "successful operation"
                    },
                    "400": {
                        "description": "Bad request"
                    },
                    "404": {
                        "description": "Resource Not Found"
                    }
                }
            }
        },
        "/api/userregisters": {
            "post": {
                "tags": [
                    "Auth"
                ],
                "summary": "register",
                "operationId": "register",
                "requestBody": {
                    "content": {
                        "application/json": {
                            "schema": {
                                "properties": {
                                    "name": {
                                        "description": "Login API",
                                        "type": "string"
                                    },
                                    "email": {
                                        "description": "Login API",
                                        "type": "string"
                                    },
                                    "mobile": {
                                        "description": "Login API",
                                        "type": "string"
                                    },
                                    "password": {
                                        "description": "Login API",
                                        "type": "string"
                                    },
                                    "c_password": {
                                        "description": "Login API",
                                        "type": "string"
                                    }
                                },
                                "type": "object"
                            }
                        }
                    }
                },
                "responses": {
                    "200": {
                        "description": "successful operation"
                    },
                    "400": {
                        "description": "Bad request"
                    },
                    "404": {
                        "description": "Resource Not Found"
                    }
                }
            }
        },
        "/api/details": {
            "post": {
                "tags": [
                    "User Profile"
                ],
                "summary": "User Details",
                "operationId": "User Details",
                "requestBody": {
                    "content": {
                        "application/json": {
                            "schema": {}
                        }
                    }
                },
                "responses": {
                    "200": {
                        "description": "successful operation"
                    },
                    "400": {
                        "description": "Bad request"
                    },
                    "404": {
                        "description": "Resource Not Found"
                    }
                },
                "security": [
                    {
                        "bearerAuth": []
                    }
                ]
            }
        },
        "/api/user_wallet": {
            "post": {
                "tags": [
                    "User Profile"
                ],
                "summary": "User wallet",
                "operationId": "User wallet",
                "requestBody": {
                    "content": {
                        "application/json": {
                            "schema": {}
                        }
                    }
                },
                "responses": {
                    "200": {
                        "description": "successful operation"
                    },
                    "400": {
                        "description": "Bad request"
                    },
                    "404": {
                        "description": "Resource Not Found"
                    }
                },
                "security": [
                    {
                        "bearerAuth": []
                    }
                ]
            }
        },
        "/api/cart": {
            "post": {
                "tags": [
                    "Cart & Wishlist"
                ],
                "summary": "User cart",
                "operationId": "User cart",
                "responses": {
                    "200": {
                        "description": "successful operation"
                    },
                    "400": {
                        "description": "Bad request"
                    },
                    "404": {
                        "description": "Resource Not Found"
                    }
                },
                "security": [
                    {
                        "bearerAuth": []
                    }
                ]
            }
        },
        "/api/wish_list": {
            "post": {
                "tags": [
                    "Cart & Wishlist"
                ],
                "summary": "User wish_list",
                "operationId": "User wish_list",
                "responses": {
                    "200": {
                        "description": "successful operation"
                    },
                    "400": {
                        "description": "Bad request"
                    },
                    "404": {
                        "description": "Resource Not Found"
                    }
                },
                "security": [
                    {
                        "bearerAuth": []
                    }
                ]
            }
        },
        "/api/update_profile": {
            "post": {
                "tags": [
                    "User Profile"
                ],
                "summary": "Update Profile",
                "operationId": "Update Profile",
                "requestBody": {
                    "content": {
                        "application/json": {
                            "schema": {
                                "properties": {
                                    "name": {
                                        "description": "Change Profile API",
                                        "type": "string"
                                    },
                                    "phone": {
                                        "description": "Change Profile API",
                                        "type": "integer"
                                    },
                                    "profile_image": {
                                        "description": "Change Profile API",
                                        "type": "string"
                                    }
                                },
                                "type": "object"
                            }
                        }
                    }
                },
                "responses": {
                    "200": {
                        "description": "successful operation"
                    },
                    "400": {
                        "description": "Bad request"
                    },
                    "404": {
                        "description": "Resource Not Found"
                    }
                },
                "security": [
                    {
                        "bearerAuth": []
                    }
                ]
            }
        },
        "/api/coupon_calculation": {
            "post": {
                "tags": [
                    "coupon calculation"
                ],
                "summary": "coupon calculation",
                "operationId": "coupon calculation",
                "requestBody": {
                    "content": {
                        "application/json": {
                            "schema": {
                                "properties": {
                                    "shipping_charge": {
                                        "description": "Coupon Calculation API",
                                        "type": "integer"
                                    },
                                    "coupon_code": {
                                        "description": "Coupon Calculation API",
                                        "type": "string"
                                    },
                                    "totalgst": {
                                        "description": "Coupon Calculation API",
                                        "type": "integer"
                                    },
                                    "price1": {
                                        "description": "Coupon Calculation API",
                                        "type": "integer"
                                    },
                                    "product_id": {
                                        "description": "Coupon Calculation API",
                                        "type": "integer"
                                    }
                                },
                                "type": "object"
                            }
                        }
                    }
                },
                "responses": {
                    "200": {
                        "description": "successful operation"
                    },
                    "400": {
                        "description": "Bad request"
                    },
                    "404": {
                        "description": "Resource Not Found"
                    }
                },
                "security": [
                    {
                        "bearerAuth": []
                    }
                ]
            }
        },
        "/": {
            "get": {
                "description": "Home page",
                "operationId": "App\\Http\\Controllers\\API\\UserController::index",
                "responses": {
                    "default": {
                        "description": "Welcome page"
                    }
                }
            }
        },
        "/api/search": {
            "get": {
                "tags": [
                    "Product Search"
                ],
                "summary": "Product Search",
                "operationId": "Product Search",
                "requestBody": {
                    "content": {
                        "application/json": {
                            "schema": {
                                "properties": {
                                    "name": {
                                        "description": "Coupon Calculation API",
                                        "type": "string"
                                    }
                                },
                                "type": "object"
                            }
                        }
                    }
                },
                "responses": {
                    "200": {
                        "description": "successful operation"
                    },
                    "400": {
                        "description": "Bad request"
                    },
                    "404": {
                        "description": "Resource Not Found"
                    }
                },
                "security": [
                    {
                        "bearerAuth": []
                    }
                ]
            }
        }
    },
    "components": {
        "securitySchemes": {
            "bearerAuth": {
                "type": "http",
                "description": "Passport bearer",
                "in": "header",
                "bearerFormat": "Passport",
                "scheme": "bearer"
            }
        }
    },
    "externalDocs": {
        "description": "Frontend Link",
        "url": "http://localhost:8000/"
    },
    "security": [
        []
    ]
}